<?xml version="1.0" encoding="UTF-8"?>
<!DOCTYPE mapper PUBLIC "-//mybatis.org//DTD Mapper 3.0//EN" "http://mybatis.org/dtd/mybatis-3-mapper.dtd">
<!-- namespace : 对应的接口全类名 id ：接口方法名 parameterType ： 传递属性类型 -->
<mapper namespace="com.hz.mapper.log.ItemOrderMapperLog">
	<!-- 收费项目 -->
	<resultMap id="ItemMapper" type="Item">
		<id property="id" column="id" />
		<result property="name" column="name" />
	</resultMap>
	<select id="getItemById" resultMap="ItemMapper">
		select * from ba_item where
		id = #{id}
	</select>

	<!-- 火化委托单 -->
	<resultMap id="CommissionOrderMapper" type="CommissionOrder">
		<id property="id" column="id" />
		<result property="name" column="name" />
	</resultMap>
	<select id="getCommissionOrderById" resultMap="CommissionOrderMapper">
		select * from
		y_commission_order where id = #{id}
	</select>

	<!-- 火化委托单收费项目 -->
	<resultMap id="ItemOrderMapper" type="ItemOrder">
		<id property="id" column="id" />
		<result property="itemId" column="item_id" />
		<result property="number" column="number" />
		<result property="tickFlag" column="tick_flag" />
		<result property="total" column="total" />
		<result property="comment" column="comment" />
		<result property="payFlag" column="pay_flag" />
		<result property="payTime" column="pay_time" />
		<result property="commissionOrderId" column="commission_order_id" />
		<association property="item" column="item_id" select="getItemById"></association>
		<association property="commissionOrder" column="commission_order_id"
			select="getCommissionOrderById"></association>
	</resultMap>

	<insert id="saveItemOrder" parameterType="ItemOrder">
		insert into
		y_item_order_log(id,item_id,number,tick_flag,total,comment,pay_flag,pay_time,commission_order_id)
		values(#{id},#{itemId},#{number},#{tickFlag},#{total},#{comment},#{payFlag},#{payTime},#{commissionOrderId})
	</insert>
	<delete id="deleteItemOrder" parameterType="String">
		delete from
		y_item_order_log where id=#{id}
	</delete>
	<update id="updateItemOrder" parameterType="ItemOrder">
		update
		y_item_order_log set
		id=#{id}, item_id=#{itemId}, number=#{number},tick_flag=#{tickFlag},
		total=#{total},
		comment=#{comment},pay_flag=#{payFlag},pay_time=#{payTime},commission_order_id=#{commissionOrderId}
		where id=#{id}
	</update>
	<select id="getItemOrderById" resultMap="ItemOrderMapper">
		select * from
		y_item_order_log where id = #{id}
	</select>
	<select id="getItemOrderList" resultMap="ItemOrderMapper">
		select * from y_item_order_log where 1=1
		<if test="name !=null and name != ''">
			and name like CONCAT('%', #{name},'%')
		</if>
		<if test="commissionOrderId !=null and commissionOrderId != ''">
			and commission_order_id =#{commissionOrderId}
		</if>
	</select>

</mapper>